…
``` r
spotify_songs %>%
  select(track_artist) %>%
  distinct #how many artists
```

    ## # A tibble: 10,693 x 1
    ##    track_artist    
    ##    <chr>           
    ##  1 Ed Sheeran      
    ##  2 Maroon 5        
    ##  3 Zara Larsson    
    ##  4 The Chainsmokers
    ##  5 Lewis Capaldi   
    ##  6 Katy Perry      
    ##  7 Sam Feldt       
    ##  8 Avicii          
    ##  9 Shawn Mendes    
    ## 10 Ellie Goulding  
    ## # … with 10,683 more rows
…
