…
```r
print(obj) #node is taxon with directed edges
```

```
## <Taxmap>
##   644 taxa: aab. NA, aac. Root ... ayu. Methanospirillaceae
##   644 edges: NA->aab, NA->aac, aac->aad ... agq->ayt, aiy->ayu
##   2 data sets:
##     tax_data:
##       # A tibble: 47,806 x 1,701
##         taxon_id OTU_ID M1024P1833 M1551P81 M1551P57 M1551P85 M1551P28
##         <chr>    <chr>       <dbl>    <dbl>    <dbl>    <dbl>    <dbl>
##       1 aab      OTU_1           0        0        0        0        0
##       2 aki      OTU_2          41       22        4      726   112492
##       3 akj      OTU_3          67       65       12    13514        1
##       # … with 47,803 more rows, and 1,694 more variables:
##       #   M1551P29 <dbl>, M1551P38 <dbl>, M1551P90 <dbl>,
##       #   M1551P71 <dbl>, M1551P12 <dbl>, M1551P84 <dbl>,
##       #   M1551P48 <dbl>, M1551P4 <dbl>, M1551P52 <dbl>,
##       #   M1551P3 <dbl>, …
##     class_data:
##       # A tibble: 138,452 x 5
##         taxon_id input_index tax_rank tax_name regex_match
##         <chr>          <int> <chr>    <chr>    <chr>      
##       1 aab                1 <NA>     <NA>     <NA>       
##       2 aac                2 r        Root     r__Root    
##       3 aad                2 k        Bacteria k__Bacteria
##       # … with 138,449 more rows
…
#number of samples that have reads for each taxon:
obj$data$tax_occ <- calc_n_samples(obj, "tax_abund", groups = pm_samples$Type, cols = pm_samples$SampleID)


#compare groups
obj$data$diff_table <- compare_groups(obj, dataset = "tax_abund",
                                      cols = pm_samples$SampleID, # What columns of sample data to use
                                      groups = pm_samples$Type) # What category each sample is assigned to
print(obj$data$diff_table)
```

```
## # A tibble: 1,932 x 7
##    taxon_id treatment_1 treatment_2 log2_median_rat… median_diff mean_diff
##    <chr>    <chr>       <chr>                  <dbl>       <dbl>     <dbl>
##  1 aab      root        soil                  -0.827   -0.152     -0.111  
##  2 aac      root        soil                   0.305    0.153      0.125  
##  3 aad      root        soil                   0.324    0.162      0.132  
##  4 aae      root        soil                  -4.57    -0.00309   -0.00711
##  5 aaf      root        soil                   0.954    0.186      0.172  
##  6 aag      root        soil                   0.612    0.0614     0.0540 
##  7 aah      root        soil                   0.969    0.0525     0.0535 
##  8 aai      root        soil                  -3.09    -0.000633  -0.0120 
##  9 aaj      root        soil                  -1.68    -0.00860   -0.0195 
## 10 aak      root        soil                  -1.81    -0.0510    -0.0649 
## # … with 1,922 more rows, and 1 more variable: wilcox_p_value <dbl>
```
…
