…
``` r
#makeDataReport(astronauts)

#cumulative hours by single astronaut
astronauts %>%
  group_by(name, nationality) %>%
  summarise(max_hrs= max(total_hrs_sum)) %>%
  arrange(desc(max_hrs))
```

    ## # A tibble: 565 x 3
    ## # Groups:   name [564]
    ##    name               nationality    max_hrs
    ##    <chr>              <chr>            <dbl>
    ##  1 Padalka, Gennady   U.S.S.R/Russia  21084.
    ##  2 Krikalev, Sergei   U.S.S.R/Russia  19282.
    ##  3 Kaleri, Aleksandr  U.S.S.R/Russia  18463.
    ##  4 Avdeyev, Sergei    U.S.S.R/Russia  17942.
    ##  5 Malenchenko, Yuri  U.S.S.R/Russia  16872.
    ##  6 Polyakov, Valeri   U.S.S.R/Russia  16289.
    ##  7 Yurchikhin, Fyodor U.S.S.R/Russia  16147 
    ##  8 Kononenko, Oleg D. U.S.S.R/Russia  16081 
    ##  9 Whitson, Peggy A.  U.S.            15982 
    ## 10 Solovyev, Anatoly  U.S.S.R/Russia  15624.
    ## # … with 555 more rows

``` r
#number of astronauts per nationality
astronauts %>%
  select(name, nationality) %>%
  distinct() %>%
  group_by(nationality) %>%
  summarise(astronauts= n()) %>%
  arrange(desc(astronauts))
```

    ## # A tibble: 40 x 2
    ##    nationality    astronauts
    ##    <chr>               <int>
    ##  1 U.S.                  344
    ##  2 U.S.S.R/Russia        122
    ##  3 Japan                  12
    ##  4 China                  11
    ##  5 Germany                11
    ##  6 Canada                 10
    ##  7 France                 10
    ##  8 Italy                   7
    ##  9 U.K./U.S.               3
    ## 10 Belgium                 2
    ## # … with 30 more rows

``` r
astronauts %>%
  select(name, nationality, occupation, military_civilian) %>%
  distinct() %>%
  group_by(nationality, occupation, military_civilian) %>%
  summarise(astronauts= n()) %>%
  arrange(desc(astronauts))
```

    ## # A tibble: 90 x 4
    ## # Groups:   nationality, occupation [71]
    ##    nationality    occupation      military_civilian astronauts
    ##    <chr>          <chr>           <chr>                  <int>
    ##  1 U.S.           pilot           military                 110
    ##  2 U.S.           MSP             civilian                  98
    ##  3 U.S.           commander       military                  85
    ##  4 U.S.           MSP             military                  74
    ##  5 U.S.S.R/Russia commander       military                  62
    ##  6 U.S.S.R/Russia flight engineer civilian                  31
    ##  7 U.S.           flight engineer military                  27
    ##  8 U.S.S.R/Russia flight engineer military                  24
    ##  9 U.S.           PSP             civilian                  23
    ## 10 U.S.           flight engineer civilian                  21
    ## # … with 80 more rows
…
