…
Actually, the fine amount is not always consistent with type. Some other considerations are taken to assign the degree of violation to amount of fine.

Now let's take a look at the top 10 countries which have paid more in fines.

``` r
summary_violations %>% arrange(desc(amount_violations)) %>% select(name)
```

    ## # A tibble: 24 x 1
    ##    name       
    ##    <chr>      
    ##  1 France     
    ##  2 Italy      
    ##  3 Germany    
    ##  4 Austria    
    ##  5 Sweden     
    ##  6 Bulgaria   
    ##  7 Spain      
    ##  8 Netherlands
    ##  9 Poland     
    ## 10 Greece     
    ## # … with 14 more rows
…
