…
glimpse(NFL_test)
```

    ## Observations: 4,083
    ## Variables: 4
    ## $ weekly_attendance    <dbl> -2.63141832, -0.53115291, -1.95778222, 0.59…
    ## $ margin_of_victory    <dbl> -2.27325628, -2.27325628, -2.27325628, -1.5…
    ## $ strength_of_schedule <dbl> -0.4384665, -0.4384665, -0.4384665, 0.90791…
    ## $ playoffs             <fct> No Playoffs, No Playoffs, No Playoffs, No P…

``` r
predict(NFL_RF, NFL_test)
```

    ## # A tibble: 4,083 x 1
    ##    .pred_class
    ##    <fct>      
    ##  1 No Playoffs
    ##  2 No Playoffs
    ##  3 No Playoffs
    ##  4 No Playoffs
    ##  5 No Playoffs
    ##  6 No Playoffs
    ##  7 No Playoffs
    ##  8 Playoffs   
    ##  9 Playoffs   
    ## 10 Playoffs   
    ## # … with 4,073 more rows
…
